[
    {
        "ExchangeCoin": "ETH",
        "BaseCoin": "USDT",
        "Type": "Buy",
        "OldFunds": false,
        "Quantity": 10,
        "Price": 300,
        "Cost": 3000,
        "Date": "2017-11-03T00:00Z"
    },
    {
        "ExchangeCoin": "DNT",
        "BaseCoin": "ETH",
        "Type": "Buy",
        "OldFunds": true,
        "Quantity": 10000,
        "Price": 0.0001,
        "Cost": 1,
        "Date": "2017-11-05T00:00Z"
    },
    {
        "ExchangeCoin": "DNT",
        "BaseCoin": "ETH",
        "Type": "Sell",
        "OldFunds": true,
        "Quantity": 2000,
        "Price": 0.00015,
        "Cost": 0.3,
        "Date": "2017-11-07T00:00Z"
    },
    {
        "ExchangeCoin": "DNT",
        "BaseCoin": "BTC",
        "Type": "Sell",
        "OldFunds": true,
        "Quantity": 4000,
        "Price": 0.000005,
        "Cost": 0.02,
        "Date": "2017-11-10T00:00Z"
    }
]