[
    {
        "ExchangeCoin": "ETH",
        "BaseCoin": "BTC",
        "Type": "Buy",
        "OldFunds": false,
        "Quantity": 10,
        "Price": 0.05,
        "Cost": 0.5,
        "Date": "2017-11-03T00:00Z"
    },
    {
        "ExchangeCoin": "BTC",
        "BaseCoin": "USDT",
        "Type": "Buy",
        "OldFunds": false,
        "Quantity": 3,
        "Price": 6000,
        "Cost": 18000,
        "Date": "2017-11-04T00:00Z"
    },
    {
        "ExchangeCoin": "ETH",
        "BaseCoin": "BTC",
        "Type": "Sell",
        "OldFunds": true,
        "Quantity": 10,
        "Price": 0.05,
        "Cost": 0.5,
        "Date": "2017-11-05T00:00Z"
    }
]